\relax 
\@writefile{toc}{\contentsline {section}{\numberline {1}Abstract}{1}}
\@writefile{toc}{\contentsline {section}{\numberline {2}Introduction}{1}}
\@writefile{toc}{\contentsline {section}{\numberline {3}System Overview}{1}}
\newlabel{fig:blockdiagram}{{3}{1}}
\@writefile{lof}{\contentsline {figure}{\numberline {1}{\ignorespaces Block Diagram of PSA System}}{1}}
\@writefile{toc}{\contentsline {section}{\numberline {4}Equations}{1}}
\newlabel{comp}{{1}{2}}
\newlabel{total}{{3}{2}}
\@writefile{toc}{\contentsline {subsection}{\numberline {4.1}Discretization}{2}}
\@writefile{lof}{\contentsline {figure}{\numberline {2}{\ignorespaces Overview of method}}{3}}
\bibcite{haghpanah}{1}
\bibcite{jee}{2}
\bibcite{farooq}{3}
\bibcite{santos}{4}
\@writefile{toc}{\contentsline {section}{\numberline {5}Code Details}{4}}
\@writefile{toc}{\contentsline {section}{\numberline {6}Simulation Results}{4}}
\@writefile{toc}{\contentsline {section}{\numberline {7}Conclusion}{4}}
