\relax 
\@writefile{toc}{\contentsline {section}{\numberline {1}Abstract}{1}}
\@writefile{toc}{\contentsline {section}{\numberline {2}Introduction}{1}}
\@writefile{toc}{\contentsline {section}{\numberline {3}Preliminaries}{1}}
\@writefile{toc}{\contentsline {section}{\numberline {4}Overview of Method}{1}}
\@writefile{toc}{\contentsline {section}{\numberline {5}Details}{1}}
\@writefile{toc}{\contentsline {section}{\numberline {6}Questions For Later}{1}}
\@writefile{toc}{\contentsline {section}{\numberline {7}Conclusion}{1}}
\bibcite{rabin}{1}
\bibcite{coding}{2}
\bibcite{ffm}{3}
