\relax 
\@writefile{toc}{\contentsline {section}{\numberline {1}Abstract}{1}}
\@writefile{toc}{\contentsline {section}{\numberline {2}Introduction}{1}}
\citation{ffm}
\citation{rabin}
\@writefile{toc}{\contentsline {section}{\numberline {3}Preliminaries}{3}}
\@writefile{toc}{\contentsline {section}{\numberline {4}Overview of Method}{3}}
\newlabel{fig:over}{{4}{4}}
\@writefile{lof}{\contentsline {figure}{\numberline {1}{\ignorespaces Overview of method}}{4}}
\@writefile{toc}{\contentsline {section}{\numberline {5}Details}{4}}
\bibcite{rabin}{1}
\@writefile{toc}{\contentsline {section}{\numberline {6}Questions For Later}{6}}
\@writefile{toc}{\contentsline {section}{\numberline {7}Conclusion}{6}}
\bibcite{coding}{2}
\bibcite{ffm}{3}
